00:00:43 Requires(rpmlib): rpmlib(CompressedFileNames) <= 3.0.4-1 rpmlib(FileDigests) <= 4.6.0-1 rpmlib(PayloadFilesHavePrefix) <= 4.0-1
00:00:43 Processing files: kernel-debuginfo-common-s390x-5.14.0-240.1860_755019343.el9.s390x
00:00:43 error: Empty %files file /tmp/rpmbuild/BUILD/kernel-5.14.0-240.1860_755019343.el9/debugfiles.list
00:00:43 
00:00:43 
00:00:43 RPM build errors:
00:00:43     File not found: /tmp/rpmbuild/BUILDROOT/kernel-5.14.0-240.1860_755019343.el9.s390x/usr/include/cpufreq.h
00:00:43     Empty %files file /tmp/rpmbuild/BUILD/kernel-5.14.0-240.1860_755019343.el9/debugfiles.list
